{
  "type": "service_account",
  "project_id": "hangouts-app-350211",
  "private_key_id": "262e938c3f50251b52ec6515cf55f3d5cf35712a",
  "private_key": "-----BEGIN PRIVATE KEY-----\nMIIEvwIBADANBgkqhkiG9w0BAQEFAASCBKkwggSlAgEAAoIBAQDg4D4AIcJPFbjq\n1cbyc/nJvVyMqn6Uv4xW16wzkeut360BQlThTpbEWqoFhvnQ2OKOmeJ4/yGobwCi\nYVFfb/f4bB9NprstuUuO3KZz5MdnPXWxiXtHITRV1oQVv0Ju12C7L+GNkvxm0HNd\n0c3Hb10VXTGtEw1OhM2VAUaTzjuxTNpDhhrY17fflYTVc3abmnMxILpiRsVId2gZ\nh+/eOCXTCzzBrweU/5+5s0BUSVIYisk0WRP0W/zR8W8ywHVAiAMalBGTitY4n2MB\n6lieTbTKYCQMGeFuxJuEORxyt76NlmDwY5Q7x3r31EGy9eGCBcU827oCjm9sWtP2\ngvM6f/IdAgMBAAECggEADErATi+KOIUec4ULTUDLpvG5N7Mwx3QPpBuWknG9KTxF\nxQDZikCf0Hcy6KnFHrEMSUaIxkZj55oRtc6OAnfTXSVD3McVX4ghD4ZozthIPLtz\noyhkWwdUngXjeHDY8nLGxdSghqWXMw4ykC6iCe8WGSSGokhH/O0YyQv7I08tnMuq\nu1wtS9BZonQjIeCip+KWtaWaqeRUioDlKNbA7j935UrdujeZafk26qYEHJIhoDn6\n2yWsjsrhms0FYs+R/8FSk2yHq7nopFyYeMBkRq9YYweZ9mIwcJPVZgZ3q/+F7wvV\nwVJbRZMoWDOScth/a8GvgieqMbMNf7vljpBLTz6fYQKBgQD3EzlkfCsngob3s0S7\n5DxdV51kZJWFR8GmTNUV22f+BnHntvx2PDUFlm3O3Lq/5TdtS1KkoRaPfImMfGh5\nkhL4U5BSndYos5RPwMGYvNM+6le8DQhP7hX+ihJ1CpHuFHXrEnTeNMQI+9c30R8P\n3MgLw4cGafDXtgiVCA3AYRYY2QKBgQDo/7xoa/HNW7cirZ8BYO3M2LRcPoI4lScS\nZ1kiyGZ6HdIGGCgZ5Kswyf8YJT1H+Ud3diwFYrMLgFVdFzmmNrY9P19ghEElOQPG\nMaNN9xY99xeOg+3Zn9HkqdZmcEfJknbxgirjGdMqqeKA7nfHjRptYOcBrYlIhiCz\ntv2CWQZ45QKBgQCJjXRYUyCbYHnPkUhk6o4I0WxYpf7wMqDG+uNuxbXBoMjtXdxz\n3tUOBU+g6RY3G1+eQ18BNIWg4I6bXe+0LvTMt4kT1beS9VdOh1vAsu9QiZrKoN7N\n0RkBmtDnxDi2OUHk22OhCfNRpROOiagnZp0gn3yev4BMN5XTkqZFQkfREQKBgQCY\nr7YE6/AKNjcd548SdTWAjuYqqN/nOn7fRZCZBaB6F/6g9cWZqksw7r5XUVgGSWo2\n897HLLXOLKxEE8s4jBQCsPvMoP6b6O/7Ol4c4nXV542tW/FLMrt2UIHqoVu50VxW\nyYlXR34lMCz5dsxRnbsawGzBobocJ6FYg+s/Nx3RrQKBgQDG1vsFnhDl1JN7pln9\n0PvoPZ7+ezZKbGQgO3oX7KYt1IEARr4DuWZT+TiQC72DHtWyOZ4eZPLvqL3D82OR\n/Y5Cw5GNI5yoqbLlbt15gptqb3pVlSqa9yJlJ+T6aWt7s3/zyZDj6lvJNUiA3RHc\nB0tGbAAA0QqYfe4TpAXtniBcYA==\n-----END PRIVATE KEY-----\n",
  "client_email": "firebase-adminsdk-7wruv@hangouts-app-350211.iam.gserviceaccount.com",
  "client_id": "117767344282750936582",
  "auth_uri": "https://accounts.google.com/o/oauth2/auth",
  "token_uri": "https://oauth2.googleapis.com/token",
  "auth_provider_x509_cert_url": "https://www.googleapis.com/oauth2/v1/certs",
  "client_x509_cert_url": "https://www.googleapis.com/robot/v1/metadata/x509/firebase-adminsdk-7wruv%40hangouts-app-350211.iam.gserviceaccount.com"
}
